%YAML 1.1
%TAG !u! tag:unity3d.com,2011:
--- !u!114 &11400000
MonoBehaviour:
  m_ObjectHideFlags: 0
  m_CorrespondingSourceObject: {fileID: 0}
  m_PrefabInstance: {fileID: 0}
  m_PrefabAsset: {fileID: 0}
  m_GameObject: {fileID: 0}
  m_Enabled: 1
  m_EditorHideFlags: 0
  m_Script: {fileID: 11500000, guid: 9ddfb24fc6900274081c34f18ae9b5ee, type: 3}
  m_Name: Watermelon
  m_EditorClassIdentifier: 
  objectWhole: {fileID: 4035506813149072007, guid: 44e3b81f1c032f9408a3f023c9fdf174, type: 3}
  objectSliced:
  - {fileID: 2002605525253879806, guid: 0005b246639bb654393a4ed81b4911ec, type: 3}
  - {fileID: 6639639464902309739, guid: 949ad5c375257c24a8e5b287d15cad2b, type: 3}
