%YAML 1.1
%TAG !u! tag:unity3d.com,2011:
--- !u!114 &11400000
MonoBehaviour:
  m_ObjectHideFlags: 0
  m_CorrespondingSourceObject: {fileID: 0}
  m_PrefabInstance: {fileID: 0}
  m_PrefabAsset: {fileID: 0}
  m_GameObject: {fileID: 0}
  m_Enabled: 1
  m_EditorHideFlags: 0
  m_Script: {fileID: 11500000, guid: 838c861159a840747874d3892609af75, type: 3}
  m_Name: FruitSliced
  m_EditorClassIdentifier: 
  looping: 0
  audioClipGroups:
  - sequenceMode: 0
    audioClips:
    - {fileID: 8300000, guid: f5dce897f77bec24498f5ca858075fa6, type: 3}
