%YAML 1.1
%TAG !u! tag:unity3d.com,2011:
--- !u!114 &11400000
MonoBehaviour:
  m_ObjectHideFlags: 0
  m_CorrespondingSourceObject: {fileID: 0}
  m_PrefabInstance: {fileID: 0}
  m_PrefabAsset: {fileID: 0}
  m_GameObject: {fileID: 0}
  m_Enabled: 1
  m_EditorHideFlags: 0
  m_Script: {fileID: 11500000, guid: 5f15b962e227b564a86662d2e73d2cbd, type: 3}
  m_Name: 3DSFX
  m_EditorClassIdentifier: 
  OutputAudioMixerGroup: {fileID: -6246855377066869883, guid: 548a7f001ca6d3d4cb67c8edf84f62a3, type: 2}
  priorityLevel: 128
  Mute: 0
  Volume: 1
  Pitch: 1
  PanStereo: 0
  ReverbZoneMix: 1
  SpatialBlend: 1
  RolloffMode: 0
  MinDistance: 1
  MaxDistance: 50
  Spread: 0
  DopplerLevel: 1
  BypassEffects: 0
  BypassListenerEffects: 0
  BypassReverbZones: 0
  IgnoreListenerVolume: 0
  IgnoreListenerPause: 0
